//序号	NPC名字	NPC类型	Chr索引ID	小地图显示	坐标起点	坐标终点	NPC面向	区域	区域编号	NPC脚本	消息處理	检测状态
//1	小猪头	1	1072	0	14322,50022	14322,50022	180	黑龙4层	1	0	L4MAP_talk01	0
//2	大猪头	1	1072	0	13322,50022	13322,50022	180	黑龙4层	1	0	L4MAP_talk02	0
