Open File [scripts/table/TerrainInfo.bin] Failed!
Call Stack:
<stack walk terminated with error 299>
2017-07-04 05.58.13.150
Unknown Windwos VerUnknown Windows NT
DirectX Ver:90000
VS:FFFE0101 PS:FFFF0104
MaxVertexShaderConst 60
MaxPixelShaderValue 65504.000000
msg Game failed to initialize (GameApp), Exit!
Call Stack:
<stack walk terminated with error 299>
2017-07-04 05.58.13.294
Unknown Windwos VerUnknown Windows NT
DirectX Ver:90000
VS:FFFE0101 PS:FFFF0104
MaxVertexShaderConst 60
MaxPixelShaderValue 65504.000000
